<?xml version="1.0" encoding="utf-8"?>
<!DOCTYPE eagle SYSTEM "eagle.dtd">
<eagle version="8.2.2">
<drawing>
<settings>
<setting alwaysvectorfont="no"/>
<setting verticaltext="up"/>
</settings>
<grid distance="0.5" unitdist="mm" unit="mm" style="lines" multiple="1" display="yes" altdistance="5" altunitdist="mil" altunit="mil"/>
<layers>
<layer number="1" name="Top" color="4" fill="1" visible="yes" active="yes"/>
<layer number="2" name="Route2" color="1" fill="3" visible="no" active="no"/>
<layer number="3" name="Route3" color="4" fill="3" visible="no" active="no"/>
<layer number="4" name="Route4" color="1" fill="4" visible="no" active="no"/>
<layer number="5" name="Route5" color="4" fill="4" visible="no" active="no"/>
<layer number="6" name="Route6" color="1" fill="8" visible="no" active="no"/>
<layer number="7" name="Route7" color="4" fill="8" visible="no" active="no"/>
<layer number="8" name="Route8" color="1" fill="2" visible="no" active="no"/>
<layer number="9" name="Route9" color="4" fill="2" visible="no" active="no"/>
<layer number="10" name="Route10" color="1" fill="7" visible="no" active="no"/>
<layer number="11" name="Route11" color="4" fill="7" visible="no" active="no"/>
<layer number="12" name="Route12" color="1" fill="5" visible="no" active="no"/>
<layer number="13" name="Route13" color="4" fill="5" visible="no" active="no"/>
<layer number="14" name="Route14" color="1" fill="6" visible="no" active="no"/>
<layer number="15" name="Route15" color="4" fill="6" visible="no" active="no"/>
<layer number="16" name="Bottom" color="1" fill="1" visible="yes" active="yes"/>
<layer number="17" name="Pads" color="2" fill="1" visible="yes" active="yes"/>
<layer number="18" name="Vias" color="2" fill="1" visible="yes" active="yes"/>
<layer number="19" name="Unrouted" color="6" fill="1" visible="yes" active="yes"/>
<layer number="20" name="Dimension" color="15" fill="1" visible="yes" active="yes"/>
<layer number="21" name="tPlace" color="7" fill="1" visible="yes" active="yes"/>
<layer number="22" name="bPlace" color="7" fill="1" visible="yes" active="yes"/>
<layer number="23" name="tOrigins" color="15" fill="1" visible="yes" active="yes"/>
<layer number="24" name="bOrigins" color="15" fill="1" visible="yes" active="yes"/>
<layer number="25" name="tNames" color="7" fill="1" visible="yes" active="yes"/>
<layer number="26" name="bNames" color="7" fill="1" visible="yes" active="yes"/>
<layer number="27" name="tValues" color="7" fill="1" visible="yes" active="yes"/>
<layer number="28" name="bValues" color="7" fill="1" visible="yes" active="yes"/>
<layer number="29" name="tStop" color="7" fill="3" visible="no" active="yes"/>
<layer number="30" name="bStop" color="7" fill="6" visible="no" active="yes"/>
<layer number="31" name="tCream" color="7" fill="4" visible="no" active="yes"/>
<layer number="32" name="bCream" color="7" fill="5" visible="no" active="yes"/>
<layer number="33" name="tFinish" color="6" fill="3" visible="no" active="yes"/>
<layer number="34" name="bFinish" color="6" fill="6" visible="no" active="yes"/>
<layer number="35" name="tGlue" color="7" fill="4" visible="no" active="yes"/>
<layer number="36" name="bGlue" color="7" fill="5" visible="no" active="yes"/>
<layer number="37" name="tTest" color="7" fill="1" visible="no" active="yes"/>
<layer number="38" name="bTest" color="7" fill="1" visible="no" active="yes"/>
<layer number="39" name="tKeepout" color="4" fill="11" visible="yes" active="yes"/>
<layer number="40" name="bKeepout" color="1" fill="11" visible="yes" active="yes"/>
<layer number="41" name="tRestrict" color="4" fill="10" visible="yes" active="yes"/>
<layer number="42" name="bRestrict" color="1" fill="10" visible="yes" active="yes"/>
<layer number="43" name="vRestrict" color="2" fill="10" visible="yes" active="yes"/>
<layer number="44" name="Drills" color="7" fill="1" visible="no" active="yes"/>
<layer number="45" name="Holes" color="7" fill="1" visible="yes" active="yes"/>
<layer number="46" name="Milling" color="3" fill="1" visible="no" active="yes"/>
<layer number="47" name="Measures" color="7" fill="1" visible="no" active="yes"/>
<layer number="48" name="Document" color="7" fill="1" visible="yes" active="yes"/>
<layer number="49" name="Reference" color="7" fill="1" visible="yes" active="yes"/>
<layer number="50" name="dxf" color="7" fill="1" visible="no" active="no"/>
<layer number="51" name="tDocu" color="7" fill="1" visible="no" active="yes"/>
<layer number="52" name="bDocu" color="7" fill="1" visible="yes" active="yes"/>
<layer number="53" name="tGND_GNDA" color="7" fill="9" visible="no" active="no"/>
<layer number="54" name="bGND_GNDA" color="1" fill="9" visible="no" active="no"/>
<layer number="56" name="wert" color="7" fill="1" visible="no" active="no"/>
<layer number="57" name="tCAD" color="7" fill="1" visible="no" active="no"/>
<layer number="59" name="tCarbon" color="7" fill="1" visible="no" active="no"/>
<layer number="60" name="bCarbon" color="7" fill="1" visible="no" active="no"/>
<layer number="90" name="Modules" color="5" fill="1" visible="no" active="no"/>
<layer number="91" name="Nets" color="2" fill="1" visible="no" active="no"/>
<layer number="92" name="Busses" color="1" fill="1" visible="no" active="no"/>
<layer number="93" name="Pins" color="2" fill="1" visible="no" active="no"/>
<layer number="94" name="Symbols" color="4" fill="1" visible="no" active="no"/>
<layer number="95" name="Names" color="7" fill="1" visible="no" active="no"/>
<layer number="96" name="Values" color="7" fill="1" visible="no" active="no"/>
<layer number="97" name="Info" color="7" fill="1" visible="no" active="no"/>
<layer number="98" name="Guide" color="6" fill="1" visible="no" active="no"/>
<layer number="99" name="SpiceOrder" color="7" fill="1" visible="no" active="no"/>
<layer number="100" name="Muster" color="7" fill="1" visible="no" active="no"/>
<layer number="101" name="Patch_Top" color="12" fill="4" visible="yes" active="yes"/>
<layer number="102" name="Vscore" color="7" fill="1" visible="yes" active="yes"/>
<layer number="103" name="tMap" color="7" fill="1" visible="yes" active="yes"/>
<layer number="104" name="Name" color="16" fill="1" visible="yes" active="yes"/>
<layer number="105" name="tPlate" color="7" fill="1" visible="yes" active="yes"/>
<layer number="106" name="bPlate" color="7" fill="1" visible="yes" active="yes"/>
<layer number="107" name="Crop" color="7" fill="1" visible="yes" active="yes"/>
<layer number="108" name="tplace-old" color="10" fill="1" visible="yes" active="yes"/>
<layer number="109" name="ref-old" color="11" fill="1" visible="yes" active="yes"/>
<layer number="110" name="fp0" color="7" fill="1" visible="yes" active="yes"/>
<layer number="111" name="LPC17xx" color="7" fill="1" visible="yes" active="yes"/>
<layer number="112" name="tSilk" color="7" fill="1" visible="yes" active="yes"/>
<layer number="113" name="IDFDebug" color="4" fill="1" visible="yes" active="yes"/>
<layer number="114" name="Badge_Outline" color="7" fill="1" visible="no" active="yes"/>
<layer number="115" name="ReferenceISLANDS" color="7" fill="1" visible="no" active="yes"/>
<layer number="116" name="Patch_BOT" color="9" fill="4" visible="yes" active="yes"/>
<layer number="118" name="Rect_Pads" color="7" fill="1" visible="no" active="yes"/>
<layer number="121" name="_tsilk" color="7" fill="1" visible="yes" active="yes"/>
<layer number="122" name="_bsilk" color="7" fill="1" visible="yes" active="yes"/>
<layer number="123" name="tTestmark" color="7" fill="1" visible="yes" active="yes"/>
<layer number="124" name="bTestmark" color="7" fill="1" visible="yes" active="yes"/>
<layer number="125" name="_tNames" color="7" fill="1" visible="yes" active="yes"/>
<layer number="126" name="_bNames" color="7" fill="1" visible="yes" active="yes"/>
<layer number="127" name="_tValues" color="7" fill="1" visible="yes" active="yes"/>
<layer number="128" name="_bValues" color="7" fill="1" visible="yes" active="yes"/>
<layer number="129" name="Mask" color="7" fill="1" visible="yes" active="yes"/>
<layer number="131" name="tAdjust" color="7" fill="1" visible="yes" active="yes"/>
<layer number="132" name="bAdjust" color="7" fill="1" visible="yes" active="yes"/>
<layer number="144" name="Drill_legend" color="7" fill="1" visible="yes" active="yes"/>
<layer number="150" name="Notes" color="7" fill="1" visible="yes" active="yes"/>
<layer number="151" name="HeatSink" color="7" fill="1" visible="yes" active="yes"/>
<layer number="152" name="_bDocu" color="7" fill="1" visible="yes" active="yes"/>
<layer number="153" name="FabDoc1" color="7" fill="1" visible="yes" active="yes"/>
<layer number="154" name="FabDoc2" color="7" fill="1" visible="yes" active="yes"/>
<layer number="155" name="FabDoc3" color="7" fill="1" visible="yes" active="yes"/>
<layer number="199" name="Contour" color="7" fill="1" visible="yes" active="yes"/>
<layer number="200" name="200bmp" color="1" fill="10" visible="yes" active="yes"/>
<layer number="201" name="201bmp" color="2" fill="10" visible="yes" active="yes"/>
<layer number="202" name="202bmp" color="3" fill="10" visible="yes" active="yes"/>
<layer number="203" name="203bmp" color="4" fill="10" visible="yes" active="yes"/>
<layer number="204" name="204bmp" color="5" fill="10" visible="yes" active="yes"/>
<layer number="205" name="205bmp" color="6" fill="10" visible="yes" active="yes"/>
<layer number="206" name="206bmp" color="7" fill="10" visible="yes" active="yes"/>
<layer number="207" name="207bmp" color="8" fill="10" visible="yes" active="yes"/>
<layer number="208" name="208bmp" color="9" fill="10" visible="yes" active="yes"/>
<layer number="209" name="209bmp" color="7" fill="1" visible="yes" active="yes"/>
<layer number="210" name="210bmp" color="7" fill="1" visible="yes" active="yes"/>
<layer number="211" name="211bmp" color="7" fill="1" visible="yes" active="yes"/>
<layer number="212" name="212bmp" color="7" fill="1" visible="yes" active="yes"/>
<layer number="213" name="213bmp" color="7" fill="1" visible="yes" active="yes"/>
<layer number="214" name="214bmp" color="7" fill="1" visible="yes" active="yes"/>
<layer number="215" name="215bmp" color="7" fill="1" visible="yes" active="yes"/>
<layer number="216" name="216bmp" color="7" fill="1" visible="yes" active="yes"/>
<layer number="217" name="217bmp" color="18" fill="1" visible="no" active="no"/>
<layer number="218" name="218bmp" color="19" fill="1" visible="no" active="no"/>
<layer number="219" name="219bmp" color="20" fill="1" visible="no" active="no"/>
<layer number="220" name="220bmp" color="21" fill="1" visible="no" active="no"/>
<layer number="221" name="221bmp" color="22" fill="1" visible="no" active="no"/>
<layer number="222" name="222bmp" color="23" fill="1" visible="no" active="no"/>
<layer number="223" name="223bmp" color="24" fill="1" visible="no" active="no"/>
<layer number="224" name="224bmp" color="25" fill="1" visible="no" active="no"/>
<layer number="225" name="225bmp" color="7" fill="1" visible="yes" active="yes"/>
<layer number="226" name="226bmp" color="7" fill="1" visible="yes" active="yes"/>
<layer number="227" name="227bmp" color="7" fill="1" visible="yes" active="yes"/>
<layer number="228" name="228bmp" color="7" fill="1" visible="yes" active="yes"/>
<layer number="229" name="229bmp" color="7" fill="1" visible="yes" active="yes"/>
<layer number="230" name="230bmp" color="7" fill="1" visible="yes" active="yes"/>
<layer number="231" name="231bmp" color="7" fill="1" visible="yes" active="yes"/>
<layer number="232" name="Eagle3D_PG2" color="7" fill="1" visible="yes" active="yes"/>
<layer number="233" name="Eagle3D_PG3" color="7" fill="1" visible="yes" active="yes"/>
<layer number="248" name="Housing" color="7" fill="1" visible="yes" active="yes"/>
<layer number="249" name="Edge" color="7" fill="1" visible="yes" active="yes"/>
<layer number="250" name="Descript" color="3" fill="1" visible="no" active="no"/>
<layer number="251" name="SMDround" color="12" fill="11" visible="no" active="no"/>
<layer number="254" name="cooling" color="7" fill="1" visible="yes" active="yes"/>
<layer number="255" name="routoute" color="7" fill="1" visible="yes" active="yes"/>
</layers>
<board>
<plain>
<wire x1="3" y1="0" x2="57.5" y2="0" width="0.1524" layer="20"/>
<wire x1="57.5" y1="0" x2="57.5" y2="2.5" width="0.1524" layer="20"/>
<wire x1="57.5" y1="2.5" x2="60" y2="5" width="0.1524" layer="20"/>
<wire x1="60" y1="5" x2="60" y2="38" width="0.1524" layer="20"/>
<wire x1="60" y1="38" x2="57.5" y2="40.5" width="0.1524" layer="20"/>
<wire x1="57.5" y1="40.5" x2="57.5" y2="52" width="0.1524" layer="20"/>
<wire x1="57.5" y1="52" x2="56.5" y2="53" width="0.1524" layer="20"/>
<wire x1="56.5" y1="53" x2="3" y2="53" width="0.1524" layer="20"/>
<wire x1="3" y1="53" x2="0.5" y2="50.5" width="0.1524" layer="20"/>
<wire x1="0.5" y1="50.5" x2="0.5" y2="2.5" width="0.1524" layer="20"/>
<wire x1="0.5" y1="2.5" x2="3" y2="0" width="0.1524" layer="20"/>
</plain>
<libraries>
<library name="SparkFun-Capacitors" urn="urn:adsk.eagle:library:510">
<description>&lt;h3&gt;SparkFun Capacitors&lt;/h3&gt;
This library contains capacitors. 
&lt;br&gt;
&lt;br&gt;
We've spent an enormous amount of time creating and checking these footprints and parts, but it is &lt;b&gt; the end user's responsibility&lt;/b&gt; to ensure correctness and suitablity for a given componet or application. 
&lt;br&gt;
&lt;br&gt;If you enjoy using this library, please buy one of our products at &lt;a href=" www.sparkfun.com"&gt;SparkFun.com&lt;/a&gt;.
&lt;br&gt;
&lt;br&gt;
&lt;b&gt;Licensing:&lt;/b&gt; Creative Commons ShareAlike 4.0 International - https://creativecommons.org/licenses/by-sa/4.0/ 
&lt;br&gt;
&lt;br&gt;
You are welcome to use this library for commercial purposes. For attribution, we ask that when you begin to sell your device using our footprint, you email us with a link to the product being sold. We want bragging rights that we helped (in a very small part) to create your 8th world wonder. We would like the opportunity to feature your device on our homepage.</description>
<packages>
<package name="CPOL-RADIAL-2.5MM-5MM" library_version="1">
<description>2.5 mm spaced PTHs with 5 mm diameter outline and standard solder mask</description>
<pad name="1" x="1.25" y="0" drill="0.7" diameter="1.651" shape="square"/>
<pad name="2" x="-1.25" y="0" drill="0.7" diameter="1.651"/>
<circle x="0" y="0" radius="2.5" width="0.2032" layer="21"/>
<text x="0" y="2.667" size="0.6096" layer="25" font="vector" ratio="20" align="bottom-center">&gt;Name</text>
<text x="0" y="-2.667" size="0.6096" layer="27" font="vector" ratio="20" align="top-center">&gt;Value</text>
<wire x1="-0.742" y1="1.397" x2="-1.758" y2="1.397" width="0.2032" layer="21"/>
<wire x1="1.758" y1="1.397" x2="0.742" y2="1.397" width="0.2032" layer="21"/>
<wire x1="1.25" y1="1.905" x2="1.25" y2="0.889" width="0.2032" layer="21"/>
</package>
</packages>
</library>
<library name="SparkFun-Connectors" urn="urn:adsk.eagle:library:513">
<description>&lt;h3&gt;SparkFun Connectors&lt;/h3&gt;
This library contains electrically-functional connectors. 
&lt;br&gt;
&lt;br&gt;
We've spent an enormous amount of time creating and checking these footprints and parts, but it is &lt;b&gt; the end user's responsibility&lt;/b&gt; to ensure correctness and suitablity for a given componet or application. 
&lt;br&gt;
&lt;br&gt;If you enjoy using this library, please buy one of our products at &lt;a href=" www.sparkfun.com"&gt;SparkFun.com&lt;/a&gt;.
&lt;br&gt;
&lt;br&gt;
&lt;b&gt;Licensing:&lt;/b&gt; Creative Commons ShareAlike 4.0 International - https://creativecommons.org/licenses/by-sa/4.0/ 
&lt;br&gt;
&lt;br&gt;
You are welcome to use this library for commercial purposes. For attribution, we ask that when you begin to sell your device using our footprint, you email us with a link to the product being sold. We want bragging rights that we helped (in a very small part) to create your 8th world wonder. We would like the opportunity to feature your device on our homepage.</description>
<packages>
<package name="POWER_JACK_SLOT" library_version="1">
<description>&lt;h3&gt;DC Barrel Power Jack/Connector PTH Slot Pads&lt;/h3&gt;
Extended soldering pads. 
5.5mm jack, 2.1mm center pole diameter
&lt;p&gt;Specifications:
&lt;ul&gt;&lt;li&gt;Pin count: 3&lt;/li&gt;
&lt;/ul&gt;&lt;/p&gt;
&lt;p&gt;&lt;a href=”https://www.sparkfun.com/datasheets/Prototyping/Barrel-Connector-PJ-202A.pdf”&gt;Datasheet referenced for footprint&lt;/a&gt;&lt;/p&gt;
&lt;p&gt;Example device(s):
&lt;ul&gt;&lt;li&gt;POWER_JACK&lt;/li&gt;
&lt;/ul&gt;&lt;/p&gt;</description>
<wire x1="9.33" y1="13.7" x2="4.83" y2="13.7" width="0.2032" layer="21"/>
<wire x1="4.83" y1="13.7" x2="0.83" y2="13.7" width="0.2032" layer="51"/>
<wire x1="0.83" y1="13.7" x2="0.83" y2="12.7" width="0.2032" layer="51"/>
<wire x1="0.83" y1="12.7" x2="0.83" y2="8.4" width="0.2032" layer="21"/>
<wire x1="0.83" y1="8.4" x2="0.83" y2="6.55" width="0.2032" layer="51"/>
<wire x1="0.98" y1="13.8" x2="4.18" y2="13.8" width="0" layer="46"/>
<wire x1="0.98" y1="13.8" x2="1.48" y2="14.3" width="0" layer="46" curve="-90"/>
<wire x1="1.48" y1="14.3" x2="3.68" y2="14.3" width="0" layer="46"/>
<wire x1="3.68" y1="14.3" x2="4.18" y2="13.8" width="0" layer="46" curve="-90"/>
<wire x1="4.18" y1="13.8" x2="3.68" y2="13.3" width="0" layer="46" curve="-90"/>
<wire x1="3.68" y1="13.3" x2="1.48" y2="13.3" width="0" layer="46"/>
<wire x1="1.48" y1="13.3" x2="0.98" y2="13.8" width="0" layer="46" curve="-90"/>
<wire x1="0.98" y1="7.5" x2="1.48" y2="8" width="0" layer="46" curve="-90"/>
<wire x1="1.48" y1="8" x2="3.68" y2="8" width="0" layer="46"/>
<wire x1="3.68" y1="8" x2="4.18" y2="7.5" width="0" layer="46" curve="-90"/>
<wire x1="4.18" y1="7.5" x2="3.68" y2="7" width="0" layer="46" curve="-90"/>
<wire x1="3.68" y1="7" x2="1.48" y2="7" width="0" layer="46"/>
<wire x1="1.48" y1="7" x2="0.98" y2="7.5" width="0" layer="46" curve="-90"/>
<wire x1="7.58" y1="12.4" x2="8.08" y2="11.9" width="0" layer="46" curve="-90"/>
<wire x1="8.08" y1="11.9" x2="8.08" y2="9.7" width="0" layer="46"/>
<wire x1="8.08" y1="9.7" x2="7.58" y2="9.2" width="0" layer="46" curve="-90"/>
<wire x1="7.58" y1="9.2" x2="7.08" y2="9.7" width="0" layer="46" curve="-90"/>
<wire x1="7.08" y1="9.7" x2="7.08" y2="11.9" width="0" layer="46"/>
<wire x1="7.08" y1="11.9" x2="7.58" y2="12.4" width="0" layer="46" curve="-90"/>
<wire x1="0.83" y1="3.1" x2="0.83" y2="0.1" width="0.2032" layer="51"/>
<wire x1="9.33" y1="0.1" x2="9.33" y2="3.1" width="0.2032" layer="51"/>
<wire x1="9.33" y1="0.1" x2="0.83" y2="0.1" width="0.2032" layer="51"/>
<wire x1="0.83" y1="6.51" x2="0.83" y2="3.1" width="0.2032" layer="21"/>
<wire x1="9.33" y1="3.1" x2="9.33" y2="13.7" width="0.2032" layer="21"/>
<wire x1="0.83" y1="3.1" x2="9.33" y2="3.1" width="0.2032" layer="21"/>
<wire x1="9.33" y1="3.1" x2="9.28" y2="3.1" width="0.2032" layer="21"/>
<pad name="PWR" x="2.58" y="13.8" drill="1" diameter="2" shape="long"/>
<pad name="GND@1" x="2.58" y="7.5" drill="1" diameter="2" shape="long"/>
<pad name="GND@2" x="7.58" y="10.8" drill="1" diameter="2" shape="long" rot="R90"/>
<text x="3.5052" y="2.159" size="0.6096" layer="25" font="vector" ratio="20">&gt;NAME</text>
<text x="3.175" y="1.143" size="0.6096" layer="27" font="vector" ratio="20">&gt;VALUE</text>
</package>
<package name="1X03" library_version="1">
<description>&lt;h3&gt;Plated Through Hole - 3 Pin&lt;/h3&gt;
&lt;p&gt;Specifications:
&lt;ul&gt;&lt;li&gt;Pin count:3&lt;/li&gt;
&lt;li&gt;Pin pitch:0.1"&lt;/li&gt;
&lt;/ul&gt;&lt;/p&gt;
&lt;p&gt;Example device(s):
&lt;ul&gt;&lt;li&gt;CONN_03&lt;/li&gt;
&lt;/ul&gt;&lt;/p&gt;</description>
<wire x1="3.81" y1="0.635" x2="4.445" y2="1.27" width="0.2032" layer="21"/>
<wire x1="4.445" y1="1.27" x2="5.715" y2="1.27" width="0.2032" layer="21"/>
<wire x1="5.715" y1="1.27" x2="6.35" y2="0.635" width="0.2032" layer="21"/>
<wire x1="6.35" y1="-0.635" x2="5.715" y2="-1.27" width="0.2032" layer="21"/>
<wire x1="5.715" y1="-1.27" x2="4.445" y2="-1.27" width="0.2032" layer="21"/>
<wire x1="4.445" y1="-1.27" x2="3.81" y2="-0.635" width="0.2032" layer="21"/>
<wire x1="-0.635" y1="1.27" x2="0.635" y2="1.27" width="0.2032" layer="21"/>
<wire x1="0.635" y1="1.27" x2="1.27" y2="0.635" width="0.2032" layer="21"/>
<wire x1="1.27" y1="-0.635" x2="0.635" y2="-1.27" width="0.2032" layer="21"/>
<wire x1="1.27" y1="0.635" x2="1.905" y2="1.27" width="0.2032" layer="21"/>
<wire x1="1.905" y1="1.27" x2="3.175" y2="1.27" width="0.2032" layer="21"/>
<wire x1="3.175" y1="1.27" x2="3.81" y2="0.635" width="0.2032" layer="21"/>
<wire x1="3.81" y1="-0.635" x2="3.175" y2="-1.27" width="0.2032" layer="21"/>
<wire x1="3.175" y1="-1.27" x2="1.905" y2="-1.27" width="0.2032" layer="21"/>
<wire x1="1.905" y1="-1.27" x2="1.27" y2="-0.635" width="0.2032" layer="21"/>
<wire x1="-1.27" y1="0.635" x2="-1.27" y2="-0.635" width="0.2032" layer="21"/>
<wire x1="-0.635" y1="1.27" x2="-1.27" y2="0.635" width="0.2032" layer="21"/>
<wire x1="-1.27" y1="-0.635" x2="-0.635" y2="-1.27" width="0.2032" layer="21"/>
<wire x1="0.635" y1="-1.27" x2="-0.635" y2="-1.27" width="0.2032" layer="21"/>
<wire x1="6.35" y1="0.635" x2="6.35" y2="-0.635" width="0.2032" layer="21"/>
<pad name="1" x="0" y="0" drill="1.016" diameter="1.8796" rot="R90"/>
<pad name="2" x="2.54" y="0" drill="1.016" diameter="1.8796" rot="R90"/>
<pad name="3" x="5.08" y="0" drill="1.016" diameter="1.8796" rot="R90"/>
<rectangle x1="4.826" y1="-0.254" x2="5.334" y2="0.254" layer="51"/>
<rectangle x1="2.286" y1="-0.254" x2="2.794" y2="0.254" layer="51"/>
<rectangle x1="-0.254" y1="-0.254" x2="0.254" y2="0.254" layer="51"/>
<text x="-1.27" y="1.397" size="0.6096" layer="25" font="vector" ratio="20">&gt;NAME</text>
<text x="-1.27" y="-2.032" size="0.6096" layer="27" font="vector" ratio="20">&gt;VALUE</text>
</package>
</packages>
</library>
<library name="SparkFun-IC-Power" urn="urn:adsk.eagle:library:526">
<description>&lt;h3&gt;SparkFun Power Driver and Management ICs&lt;/h3&gt;
In this library you'll find anything that has to do with power delivery, or making power supplies.
&lt;p&gt;Contents:
&lt;ul&gt;&lt;li&gt;LDOs&lt;/li&gt;
&lt;li&gt;Boost/Buck controllers&lt;/li&gt;
&lt;li&gt;Charge pump controllers&lt;/li&gt;
&lt;li&gt;Power sequencers&lt;/li&gt;
&lt;li&gt;Power switches&lt;/li&gt;
&lt;/ul&gt;&lt;/p&gt;
&lt;br&gt;
We've spent an enormous amount of time creating and checking these footprints and parts, but it is &lt;b&gt; the end user's responsibility&lt;/b&gt; to ensure correctness and suitablity for a given componet or application. 
&lt;br&gt;
&lt;br&gt;If you enjoy using this library, please buy one of our products at &lt;a href=" www.sparkfun.com"&gt;SparkFun.com&lt;/a&gt;.
&lt;br&gt;
&lt;br&gt;
&lt;b&gt;Licensing:&lt;/b&gt; Creative Commons ShareAlike 4.0 International - https://creativecommons.org/licenses/by-sa/4.0/ 
&lt;br&gt;
&lt;br&gt;
You are welcome to use this library for commercial purposes. For attribution, we ask that when you begin to sell your device using our footprint, you email us with a link to the product being sold. We want bragging rights that we helped (in a very small part) to create your 8th world wonder. We would like the opportunity to feature your device on our homepage.</description>
<packages>
<package name="TO-220-ALT" library_version="1">
<wire x1="-5.207" y1="-1.27" x2="5.207" y2="-1.27" width="0.1524" layer="21"/>
<wire x1="5.207" y1="14.605" x2="-5.207" y2="14.605" width="0.1524" layer="21"/>
<wire x1="5.207" y1="-1.27" x2="5.207" y2="11.176" width="0.1524" layer="21"/>
<wire x1="5.207" y1="11.176" x2="4.318" y2="11.176" width="0.1524" layer="21"/>
<wire x1="4.318" y1="11.176" x2="4.318" y2="12.7" width="0.1524" layer="21"/>
<wire x1="4.318" y1="12.7" x2="5.207" y2="12.7" width="0.1524" layer="21"/>
<wire x1="5.207" y1="12.7" x2="5.207" y2="14.605" width="0.1524" layer="21"/>
<wire x1="-5.207" y1="-1.27" x2="-5.207" y2="11.176" width="0.1524" layer="21"/>
<wire x1="-5.207" y1="11.176" x2="-4.318" y2="11.176" width="0.1524" layer="21"/>
<wire x1="-4.318" y1="11.176" x2="-4.318" y2="12.7" width="0.1524" layer="21"/>
<wire x1="-4.318" y1="12.7" x2="-5.207" y2="12.7" width="0.1524" layer="21"/>
<wire x1="-5.207" y1="12.7" x2="-5.207" y2="14.605" width="0.1524" layer="21"/>
<wire x1="-4.572" y1="-0.635" x2="4.572" y2="-0.635" width="0.0508" layer="21"/>
<wire x1="4.572" y1="7.62" x2="4.572" y2="-0.635" width="0.0508" layer="21"/>
<wire x1="4.572" y1="7.62" x2="-4.572" y2="7.62" width="0.0508" layer="21"/>
<wire x1="-4.572" y1="-0.635" x2="-4.572" y2="7.62" width="0.0508" layer="21"/>
<circle x="0" y="11.176" radius="1.8034" width="0.1524" layer="21"/>
<circle x="0" y="11.176" radius="3.048" width="0" layer="42"/>
<circle x="0" y="11.176" radius="3.048" width="0" layer="43"/>
<pad name="IN" x="-2.54" y="-3.81" drill="1.016" shape="long" rot="R90"/>
<pad name="GND" x="0" y="-3.81" drill="1.016" shape="long" rot="R90"/>
<pad name="OUT" x="2.54" y="-3.81" drill="1.016" shape="long" rot="R90"/>
<text x="-3.81" y="5.08" size="1.778" layer="25" ratio="10">&gt;NAME</text>
<text x="-3.937" y="2.54" size="1.778" layer="27" ratio="10">&gt;VALUE</text>
<text x="-0.508" y="0" size="1.27" layer="51" ratio="10">-</text>
<text x="-3.048" y="0" size="1.27" layer="51" ratio="10">I</text>
<text x="2.032" y="0" size="1.27" layer="51" ratio="10">O</text>
<rectangle x1="1.905" y1="-2.159" x2="3.175" y2="-1.27" layer="21"/>
<rectangle x1="1.905" y1="-3.81" x2="3.175" y2="-2.159" layer="51"/>
<rectangle x1="-0.635" y1="-2.159" x2="0.635" y2="-1.27" layer="21"/>
<rectangle x1="-3.175" y1="-2.159" x2="-1.905" y2="-1.27" layer="21"/>
<rectangle x1="-0.635" y1="-3.81" x2="0.635" y2="-2.159" layer="51"/>
<rectangle x1="-3.175" y1="-3.81" x2="-1.905" y2="-2.159" layer="51"/>
<hole x="0" y="11.176" drill="3.302"/>
</package>
</packages>
</library>
<library name="SparkFun-Boards" urn="urn:adsk.eagle:library:509">
<description>&lt;h3&gt;SparkFun Electronics' preferred foot prints&lt;/h3&gt;
This library contains footprints for SparkFun breakout boards, microcontrollers (Arduino, Particle, Teensy, etc.),  breadboards, non-RF modules, etc.
&lt;br&gt;
&lt;br&gt;
We've spent an enormous amount of time creating and checking these footprints and parts, but it is &lt;b&gt; the end user's responsibility&lt;/b&gt; to ensure correctness and suitablity for a given componet or application. 
&lt;br&gt;
&lt;br&gt;If you enjoy using this library, please buy one of our products at &lt;a href=" www.sparkfun.com"&gt;SparkFun.com&lt;/a&gt;.
&lt;br&gt;
&lt;br&gt;
&lt;b&gt;Licensing:&lt;/b&gt; Creative Commons ShareAlike 4.0 International - https://creativecommons.org/licenses/by-sa/4.0/ 
&lt;br&gt;
&lt;br&gt;
You are welcome to use this library for commercial purposes. For attribution, we ask that when you begin to sell your device using our footprint, you email us with a link to the product being sold. We want bragging rights that we helped (in a very small part) to create your 8th world wonder. We would like the opportunity to feature your device on our homepage.</description>
<packages>
<package name="UNO_R3_SHIELD" library_version="1">
<description>&lt;h3&gt;Arduino Uno-Compatible Footprint&lt;/h3&gt;
No holes, no ICSP connections.
&lt;p&gt;Specifications:
&lt;ul&gt;&lt;li&gt;Pin count: 32&lt;/li&gt;
&lt;li&gt;Pin pitch: 0.1"&lt;/li&gt;
&lt;li&gt;Area:2.1x2.35"&lt;/li&gt;
&lt;/ul&gt;&lt;/p&gt;
&lt;p&gt;Example device(s):
&lt;ul&gt;&lt;li&gt;Arduino Uno R3 Shield&lt;/li&gt;
&lt;/ul&gt;&lt;/p&gt;</description>
<wire x1="-24.13" y1="-29.21" x2="-17.17" y2="-29.21" width="0.254" layer="51"/>
<wire x1="-17.17" y1="-29.21" x2="-4.97" y2="-29.21" width="0.254" layer="51"/>
<wire x1="-4.97" y1="-29.21" x2="24.13" y2="-29.21" width="0.254" layer="51"/>
<wire x1="24.13" y1="-29.21" x2="26.67" y2="-26.67" width="0.254" layer="51"/>
<wire x1="26.67" y1="27.94" x2="24.13" y2="27.94" width="0.254" layer="51"/>
<wire x1="24.13" y1="27.94" x2="21.59" y2="30.48" width="0.254" layer="51"/>
<wire x1="-26.67" y1="26.67" x2="-26.67" y2="-26.67" width="0.254" layer="51"/>
<wire x1="-26.67" y1="-26.67" x2="-24.13" y2="-29.21" width="0.254" layer="51"/>
<wire x1="21.59" y1="30.48" x2="-11.43" y2="30.48" width="0.254" layer="51"/>
<wire x1="-11.43" y1="30.48" x2="-13.97" y2="27.94" width="0.254" layer="51"/>
<wire x1="-13.97" y1="27.94" x2="-25.4" y2="27.94" width="0.254" layer="51"/>
<wire x1="-25.4" y1="27.94" x2="-26.67" y2="26.67" width="0.254" layer="51"/>
<wire x1="26.67" y1="-26.67" x2="26.67" y2="27.94" width="0.254" layer="51"/>
<wire x1="-17.17" y1="-44.71" x2="-4.97" y2="-44.71" width="0.254" layer="51"/>
<wire x1="13.53" y1="-39.51" x2="22.53" y2="-39.51" width="0.254" layer="51"/>
<wire x1="-17.17" y1="-44.71" x2="-17.17" y2="-29.21" width="0.254" layer="51"/>
<wire x1="-4.97" y1="-44.71" x2="-4.97" y2="-29.21" width="0.254" layer="51"/>
<wire x1="13.53" y1="-39.51" x2="13.53" y2="-29.31" width="0.254" layer="51"/>
<wire x1="22.53" y1="-39.51" x2="22.53" y2="-29.31" width="0.254" layer="51"/>
<wire x1="-25.4" y1="26.67" x2="-22.86" y2="26.67" width="0.127" layer="51"/>
<wire x1="-22.86" y1="26.67" x2="-22.86" y2="6.35" width="0.127" layer="51"/>
<wire x1="-22.86" y1="6.35" x2="-25.4" y2="6.35" width="0.127" layer="51"/>
<wire x1="-25.4" y1="6.35" x2="-25.4" y2="26.67" width="0.127" layer="51"/>
<wire x1="-25.4" y1="5.08" x2="-22.86" y2="5.08" width="0.127" layer="51"/>
<wire x1="-22.86" y1="5.08" x2="-22.86" y2="-20.32" width="0.127" layer="51"/>
<wire x1="-22.86" y1="-20.32" x2="-25.4" y2="-20.32" width="0.127" layer="51"/>
<wire x1="-25.4" y1="-20.32" x2="-25.4" y2="5.08" width="0.127" layer="51"/>
<wire x1="22.86" y1="-11.43" x2="25.4" y2="-11.43" width="0.127" layer="51"/>
<wire x1="25.4" y1="-11.43" x2="25.4" y2="8.89" width="0.127" layer="51"/>
<wire x1="25.4" y1="8.89" x2="22.86" y2="8.89" width="0.127" layer="51"/>
<wire x1="22.86" y1="8.89" x2="22.86" y2="-11.43" width="0.127" layer="51"/>
<wire x1="25.4" y1="11.43" x2="22.86" y2="11.43" width="0.127" layer="51"/>
<wire x1="22.86" y1="11.43" x2="22.86" y2="26.67" width="0.127" layer="51"/>
<wire x1="22.86" y1="26.67" x2="25.4" y2="26.67" width="0.127" layer="51"/>
<wire x1="25.4" y1="26.67" x2="25.4" y2="11.43" width="0.127" layer="51"/>
<wire x1="-4.445" y1="24.13" x2="-5.08" y2="24.765" width="0.254" layer="51"/>
<wire x1="-5.08" y1="24.765" x2="-5.08" y2="28.575" width="0.254" layer="51"/>
<wire x1="-5.08" y1="28.575" x2="-4.445" y2="29.21" width="0.254" layer="51"/>
<wire x1="-4.445" y1="29.21" x2="1.905" y2="29.21" width="0.254" layer="51"/>
<wire x1="1.905" y1="29.21" x2="2.54" y2="28.575" width="0.254" layer="51"/>
<wire x1="2.54" y1="28.575" x2="2.54" y2="24.765" width="0.254" layer="51"/>
<wire x1="2.54" y1="24.765" x2="1.905" y2="24.13" width="0.254" layer="51"/>
<wire x1="1.905" y1="24.13" x2="-4.445" y2="24.13" width="0.254" layer="51"/>
<wire x1="-3.175" y1="23.622" x2="-4.445" y2="23.622" width="0.2032" layer="51"/>
<pad name="RES" x="24.13" y="-5.08" drill="1.016" diameter="1.8796" rot="R90"/>
<pad name="3.3V" x="24.13" y="-2.54" drill="1.016" diameter="1.8796" rot="R90"/>
<pad name="5V" x="24.13" y="0" drill="1.016" diameter="1.8796" rot="R90"/>
<pad name="GND@0" x="24.13" y="2.54" drill="1.016" diameter="1.8796" rot="R90"/>
<pad name="GND@1" x="24.13" y="5.08" drill="1.016" diameter="1.8796" rot="R90"/>
<pad name="VIN" x="24.13" y="7.62" drill="1.016" diameter="1.8796" rot="R90"/>
<pad name="A0" x="24.13" y="12.7" drill="1.016" diameter="1.8796" rot="R90"/>
<pad name="A1" x="24.13" y="15.24" drill="1.016" diameter="1.8796" rot="R90"/>
<pad name="A2" x="24.13" y="17.78" drill="1.016" diameter="1.8796" rot="R90"/>
<pad name="A3" x="24.13" y="20.32" drill="1.016" diameter="1.8796" rot="R90"/>
<pad name="A4" x="24.13" y="22.86" drill="1.016" diameter="1.8796" rot="R90"/>
<pad name="A5" x="24.13" y="25.4" drill="1.016" diameter="1.8796" rot="R90"/>
<pad name="RX" x="-24.13" y="25.4" drill="1.016" diameter="1.8796" rot="R90"/>
<pad name="TX" x="-24.13" y="22.86" drill="1.016" diameter="1.8796" rot="R90"/>
<pad name="D2" x="-24.13" y="20.32" drill="1.016" diameter="1.8796" rot="R90"/>
<pad name="D3" x="-24.13" y="17.78" drill="1.016" diameter="1.8796" rot="R90"/>
<pad name="D4" x="-24.13" y="15.24" drill="1.016" diameter="1.8796" rot="R90"/>
<pad name="D5" x="-24.13" y="12.7" drill="1.016" diameter="1.8796" rot="R90"/>
<pad name="D6" x="-24.13" y="10.16" drill="1.016" diameter="1.8796" rot="R90"/>
<pad name="D7" x="-24.13" y="7.62" drill="1.016" diameter="1.8796" rot="R90"/>
<pad name="D8" x="-24.13" y="3.81" drill="1.016" diameter="1.8796" rot="R90"/>
<pad name="D9" x="-24.13" y="1.27" drill="1.016" diameter="1.8796" rot="R90"/>
<pad name="D10" x="-24.13" y="-1.27" drill="1.016" diameter="1.8796" rot="R90"/>
<pad name="D11" x="-24.13" y="-3.81" drill="1.016" diameter="1.8796" rot="R90"/>
<pad name="D12" x="-24.13" y="-6.35" drill="1.016" diameter="1.8796" rot="R90"/>
<pad name="D13" x="-24.13" y="-8.89" drill="1.016" diameter="1.8796" rot="R90"/>
<pad name="GND@2" x="-24.13" y="-11.43" drill="1.016" diameter="1.8796" rot="R90"/>
<pad name="AREF" x="-24.13" y="-13.97" drill="1.016" diameter="1.8796" rot="R90"/>
<pad name="SDA" x="-24.13" y="-16.51" drill="1.016" diameter="1.8796" rot="R90"/>
<pad name="SCL" x="-24.13" y="-19.05" drill="1.016" diameter="1.8796" rot="R90"/>
<pad name="IOREF" x="24.13" y="-7.62" drill="1.016" diameter="1.8796" rot="R90"/>
<pad name="NC" x="24.13" y="-10.16" drill="1.016" diameter="1.8796" rot="R90"/>
<text x="22.7457" y="3.048" size="1.016" layer="21" font="vector" ratio="15" rot="R180">GND</text>
<text x="22.7457" y="5.588" size="1.016" layer="21" font="vector" ratio="15" rot="R180">GND</text>
<text x="22.7457" y="0.508" size="1.016" layer="21" font="vector" ratio="15" rot="R180">+5V</text>
<text x="22.7457" y="-4.572" size="1.016" layer="21" font="vector" ratio="15" rot="R180">RST</text>
<text x="22.7457" y="8.128" size="1.016" layer="21" font="vector" ratio="15" rot="R180">VIN</text>
<text x="22.7457" y="-2.032" size="1.016" layer="21" font="vector" ratio="15" rot="R180">+3.3V</text>
<text x="22.7457" y="13.208" size="1.016" layer="21" font="vector" ratio="15" rot="R180">0</text>
<text x="22.7457" y="15.748" size="1.016" layer="21" font="vector" ratio="15" rot="R180">1</text>
<text x="22.7457" y="18.288" size="1.016" layer="21" font="vector" ratio="15" rot="R180">2</text>
<text x="22.7457" y="20.828" size="1.016" layer="21" font="vector" ratio="15" rot="R180">3</text>
<text x="22.7457" y="23.368" size="1.016" layer="21" font="vector" ratio="15" rot="R180">4</text>
<text x="22.7457" y="25.908" size="1.016" layer="21" font="vector" ratio="15" rot="R180">5</text>
<text x="-22.86" y="-11.938" size="1.016" layer="21" font="vector" ratio="15">GND</text>
<text x="-22.86" y="-9.398" size="1.016" layer="21" font="vector" ratio="15">13</text>
<text x="-22.86" y="-6.858" size="1.016" layer="21" font="vector" ratio="15">12</text>
<text x="-22.86" y="-4.318" size="1.016" layer="21" font="vector" ratio="15">11</text>
<text x="-22.86" y="-14.478" size="1.016" layer="21" font="vector" ratio="15">AREF</text>
<text x="-22.86" y="-1.778" size="1.016" layer="21" font="vector" ratio="15">10</text>
<text x="-22.86" y="0.762" size="1.016" layer="21" font="vector" ratio="15">9</text>
<text x="-22.86" y="3.302" size="1.016" layer="21" font="vector" ratio="15">8</text>
<text x="-22.86" y="7.112" size="1.016" layer="21" font="vector" ratio="15">7</text>
<text x="-22.86" y="9.652" size="1.016" layer="21" font="vector" ratio="15">6</text>
<text x="-22.86" y="12.192" size="1.016" layer="21" font="vector" ratio="15">5</text>
<text x="-22.86" y="14.732" size="1.016" layer="21" font="vector" ratio="15">4</text>
<text x="-22.86" y="17.272" size="1.016" layer="21" font="vector" ratio="15">3</text>
<text x="-22.86" y="19.812" size="1.016" layer="21" font="vector" ratio="15">2</text>
<text x="-22.86" y="22.352" size="1.016" layer="21" font="vector" ratio="15">TX</text>
<text x="-22.86" y="24.892" size="1.016" layer="21" font="vector" ratio="15">RX</text>
<text x="-22.86" y="-17.018" size="1.016" layer="21" font="vector" ratio="15">SDA</text>
<text x="-22.86" y="-19.558" size="1.016" layer="21" font="vector" ratio="15">SCL</text>
<text x="22.7457" y="-7.112" size="1.016" layer="21" font="vector" ratio="15" rot="R180">IOREF</text>
<text x="0.635" y="23.241" size="0.508" layer="51" font="vector" ratio="15">RST</text>
<text x="-1.778" y="26.416" size="0.508" layer="51" font="vector" ratio="15">ISP</text>
<text x="-12.065" y="-44.069" size="0.508" layer="51" font="vector" ratio="15">USB</text>
<text x="15.875" y="-38.989" size="0.508" layer="51" font="vector" ratio="15">POWER JACK</text>
<text x="0" y="30.734" size="0.6096" layer="25" font="vector" ratio="20" align="bottom-center">&gt;NAME</text>
<text x="0" y="-29.718" size="0.6096" layer="27" font="vector" ratio="20" align="top-center">&gt;VALUE</text>
</package>
</packages>
</library>
<library name="SparkFun-Switches" urn="urn:adsk.eagle:library:535">
<description>&lt;h3&gt;SparkFun Switches, Buttons, Encoders&lt;/h3&gt;
In this library you'll find switches, buttons, joysticks, and anything that moves to create or disrupt an electrical connection.
&lt;br&gt;
&lt;br&gt;
We've spent an enormous amount of time creating and checking these footprints and parts, but it is &lt;b&gt; the end user's responsibility&lt;/b&gt; to ensure correctness and suitablity for a given componet or application. 
&lt;br&gt;
&lt;br&gt;If you enjoy using this library, please buy one of our products at &lt;a href=" www.sparkfun.com"&gt;SparkFun.com&lt;/a&gt;.
&lt;br&gt;
&lt;br&gt;
&lt;b&gt;Licensing:&lt;/b&gt; Creative Commons ShareAlike 4.0 International - https://creativecommons.org/licenses/by-sa/4.0/ 
&lt;br&gt;
&lt;br&gt;
You are welcome to use this library for commercial purposes. For attribution, we ask that when you begin to sell your device using our footprint, you email us with a link to the product being sold. We want bragging rights that we helped (in a very small part) to create your 8th world wonder. We would like the opportunity to feature your device on our homepage.</description>
<packages>
<package name="TACTILE_SWITCH_PTH_6.0MM" library_version="1">
<description>&lt;h3&gt;Momentary Switch (Pushbutton) - SPST - PTH, 6.0mm Square&lt;/h3&gt;
&lt;p&gt;Normally-open (NO) SPST momentary switches (buttons, pushbuttons).&lt;/p&gt;
&lt;p&gt;&lt;a href="https://www.omron.com/ecb/products/pdf/en-b3f.pdf"&gt;Datasheet&lt;/a&gt; (B3F-1000)&lt;/p&gt;</description>
<wire x1="3.048" y1="1.016" x2="3.048" y2="2.54" width="0.2032" layer="51"/>
<wire x1="3.048" y1="2.54" x2="2.54" y2="3.048" width="0.2032" layer="51"/>
<wire x1="2.54" y1="-3.048" x2="3.048" y2="-2.54" width="0.2032" layer="51"/>
<wire x1="3.048" y1="-2.54" x2="3.048" y2="-1.016" width="0.2032" layer="51"/>
<wire x1="-2.54" y1="3.048" x2="-3.048" y2="2.54" width="0.2032" layer="51"/>
<wire x1="-3.048" y1="2.54" x2="-3.048" y2="1.016" width="0.2032" layer="51"/>
<wire x1="-2.54" y1="-3.048" x2="-3.048" y2="-2.54" width="0.2032" layer="51"/>
<wire x1="-3.048" y1="-2.54" x2="-3.048" y2="-1.016" width="0.2032" layer="51"/>
<wire x1="2.54" y1="-3.048" x2="2.159" y2="-3.048" width="0.2032" layer="51"/>
<wire x1="-2.54" y1="-3.048" x2="-2.159" y2="-3.048" width="0.2032" layer="51"/>
<wire x1="-2.54" y1="3.048" x2="-2.159" y2="3.048" width="0.2032" layer="51"/>
<wire x1="2.54" y1="3.048" x2="2.159" y2="3.048" width="0.2032" layer="51"/>
<wire x1="2.159" y1="3.048" x2="-2.159" y2="3.048" width="0.2032" layer="21"/>
<wire x1="-2.159" y1="-3.048" x2="2.159" y2="-3.048" width="0.2032" layer="21"/>
<wire x1="3.048" y1="0.998" x2="3.048" y2="-1.016" width="0.2032" layer="21"/>
<wire x1="-3.048" y1="1.028" x2="-3.048" y2="-1.016" width="0.2032" layer="21"/>
<wire x1="-2.54" y1="1.27" x2="-2.54" y2="0.508" width="0.2032" layer="51"/>
<wire x1="-2.54" y1="-0.508" x2="-2.54" y2="-1.27" width="0.2032" layer="51"/>
<wire x1="-2.54" y1="0.508" x2="-2.159" y2="-0.381" width="0.2032" layer="51"/>
<circle x="0" y="0" radius="1.778" width="0.2032" layer="21"/>
<pad name="1" x="-3.2512" y="2.2606" drill="1.016" diameter="1.8796"/>
<pad name="2" x="3.2512" y="2.2606" drill="1.016" diameter="1.8796"/>
<pad name="3" x="-3.2512" y="-2.2606" drill="1.016" diameter="1.8796"/>
<pad name="4" x="3.2512" y="-2.2606" drill="1.016" diameter="1.8796"/>
<text x="0" y="3.302" size="0.6096" layer="25" font="vector" ratio="20" align="bottom-center">&gt;Name</text>
<text x="0" y="-3.175" size="0.6096" layer="27" font="vector" ratio="20" align="top-center">&gt;Value</text>
</package>
</packages>
</library>
</libraries>
<attributes>
</attributes>
<variantdefs>
</variantdefs>
<classes>
<class number="0" name="default" width="0" drill="0">
</class>
</classes>
<designrules name="default">
<description language="de">&lt;b&gt;EAGLE Design Rules&lt;/b&gt;
&lt;p&gt;
Die Standard-Design-Rules sind so gewählt, dass sie für 
die meisten Anwendungen passen. Sollte ihre Platine 
besondere Anforderungen haben, treffen Sie die erforderlichen
Einstellungen hier und speichern die Design Rules unter 
einem neuen Namen ab.</description>
<description language="en">&lt;b&gt;EAGLE Design Rules&lt;/b&gt;
&lt;p&gt;
The default Design Rules have been set to cover
a wide range of applications. Your particular design
may have different requirements, so please make the
necessary adjustments and save your customized
design rules under a new name.</description>
<param name="layerSetup" value="(1*16)"/>
<param name="mtCopper" value="0.035mm 0.035mm 0.035mm 0.035mm 0.035mm 0.035mm 0.035mm 0.035mm 0.035mm 0.035mm 0.035mm 0.035mm 0.035mm 0.035mm 0.035mm 0.035mm"/>
<param name="mtIsolate" value="1.5mm 0.15mm 0.2mm 0.15mm 0.2mm 0.15mm 0.2mm 0.15mm 0.2mm 0.15mm 0.2mm 0.15mm 0.2mm 0.15mm 0.2mm"/>
<param name="mdWireWire" value="6mil"/>
<param name="mdWirePad" value="6mil"/>
<param name="mdWireVia" value="6mil"/>
<param name="mdPadPad" value="6mil"/>
<param name="mdPadVia" value="6mil"/>
<param name="mdViaVia" value="6mil"/>
<param name="mdSmdPad" value="6mil"/>
<param name="mdSmdVia" value="6mil"/>
<param name="mdSmdSmd" value="6mil"/>
<param name="mdViaViaSameLayer" value="6mil"/>
<param name="mnLayersViaInSmd" value="2"/>
<param name="mdCopperDimension" value="40mil"/>
<param name="mdDrill" value="6mil"/>
<param name="mdSmdStop" value="0mil"/>
<param name="msWidth" value="6mil"/>
<param name="msDrill" value="0.35mm"/>
<param name="msMicroVia" value="9.99mm"/>
<param name="msBlindViaRatio" value="0.5"/>
<param name="rvPadTop" value="0.25"/>
<param name="rvPadInner" value="0.25"/>
<param name="rvPadBottom" value="0.25"/>
<param name="rvViaOuter" value="0.25"/>
<param name="rvViaInner" value="0.25"/>
<param name="rvMicroViaOuter" value="0.25"/>
<param name="rvMicroViaInner" value="0.25"/>
<param name="rlMinPadTop" value="10mil"/>
<param name="rlMaxPadTop" value="20mil"/>
<param name="rlMinPadInner" value="10mil"/>
<param name="rlMaxPadInner" value="20mil"/>
<param name="rlMinPadBottom" value="10mil"/>
<param name="rlMaxPadBottom" value="20mil"/>
<param name="rlMinViaOuter" value="8mil"/>
<param name="rlMaxViaOuter" value="20mil"/>
<param name="rlMinViaInner" value="8mil"/>
<param name="rlMaxViaInner" value="20mil"/>
<param name="rlMinMicroViaOuter" value="4mil"/>
<param name="rlMaxMicroViaOuter" value="20mil"/>
<param name="rlMinMicroViaInner" value="4mil"/>
<param name="rlMaxMicroViaInner" value="20mil"/>
<param name="psTop" value="-1"/>
<param name="psBottom" value="-1"/>
<param name="psFirst" value="-1"/>
<param name="psElongationLong" value="100"/>
<param name="psElongationOffset" value="100"/>
<param name="mvStopFrame" value="1"/>
<param name="mvCreamFrame" value="0"/>
<param name="mlMinStopFrame" value="4mil"/>
<param name="mlMaxStopFrame" value="4mil"/>
<param name="mlMinCreamFrame" value="0mil"/>
<param name="mlMaxCreamFrame" value="0mil"/>
<param name="mlViaStopLimit" value="0mil"/>
<param name="srRoundness" value="0"/>
<param name="srMinRoundness" value="0mil"/>
<param name="srMaxRoundness" value="0mil"/>
<param name="slThermalIsolate" value="10mil"/>
<param name="slThermalsForVias" value="0"/>
<param name="dpMaxLengthDifference" value="10mm"/>
<param name="dpGapFactor" value="2.5"/>
<param name="checkGrid" value="0"/>
<param name="checkAngle" value="0"/>
<param name="checkFont" value="1"/>
<param name="checkRestrict" value="1"/>
<param name="useDiameter" value="13"/>
<param name="maxErrors" value="50"/>
</designrules>
<autorouter>
<pass name="Default">
<param name="RoutingGrid" value="50mil"/>
<param name="AutoGrid" value="1"/>
<param name="Efforts" value="0"/>
<param name="TopRouterVariant" value="1"/>
<param name="tpViaShape" value="round"/>
<param name="PrefDir.1" value="a"/>
<param name="PrefDir.2" value="0"/>
<param name="PrefDir.3" value="0"/>
<param name="PrefDir.4" value="0"/>
<param name="PrefDir.5" value="0"/>
<param name="PrefDir.6" value="0"/>
<param name="PrefDir.7" value="0"/>
<param name="PrefDir.8" value="0"/>
<param name="PrefDir.9" value="0"/>
<param name="PrefDir.10" value="0"/>
<param name="PrefDir.11" value="0"/>
<param name="PrefDir.12" value="0"/>
<param name="PrefDir.13" value="0"/>
<param name="PrefDir.14" value="0"/>
<param name="PrefDir.15" value="0"/>
<param name="PrefDir.16" value="a"/>
<param name="cfVia" value="8"/>
<param name="cfNonPref" value="5"/>
<param name="cfChangeDir" value="2"/>
<param name="cfOrthStep" value="2"/>
<param name="cfDiagStep" value="3"/>
<param name="cfExtdStep" value="0"/>
<param name="cfBonusStep" value="1"/>
<param name="cfMalusStep" value="1"/>
<param name="cfPadImpact" value="4"/>
<param name="cfSmdImpact" value="4"/>
<param name="cfBusImpact" value="0"/>
<param name="cfHugging" value="3"/>
<param name="cfAvoid" value="4"/>
<param name="cfPolygon" value="10"/>
<param name="cfBase.1" value="0"/>
<param name="cfBase.2" value="1"/>
<param name="cfBase.3" value="1"/>
<param name="cfBase.4" value="1"/>
<param name="cfBase.5" value="1"/>
<param name="cfBase.6" value="1"/>
<param name="cfBase.7" value="1"/>
<param name="cfBase.8" value="1"/>
<param name="cfBase.9" value="1"/>
<param name="cfBase.10" value="1"/>
<param name="cfBase.11" value="1"/>
<param name="cfBase.12" value="1"/>
<param name="cfBase.13" value="1"/>
<param name="cfBase.14" value="1"/>
<param name="cfBase.15" value="1"/>
<param name="cfBase.16" value="0"/>
<param name="mnVias" value="20"/>
<param name="mnSegments" value="9999"/>
<param name="mnExtdSteps" value="9999"/>
<param name="mnRipupLevel" value="10"/>
<param name="mnRipupSteps" value="100"/>
<param name="mnRipupTotal" value="100"/>
</pass>
<pass name="Follow-me" refer="Default" active="yes">
</pass>
<pass name="Busses" refer="Default" active="yes">
<param name="cfNonPref" value="4"/>
<param name="cfBusImpact" value="4"/>
<param name="cfHugging" value="0"/>
<param name="mnVias" value="0"/>
</pass>
<pass name="Route" refer="Default" active="yes">
</pass>
<pass name="Optimize1" refer="Default" active="yes">
<param name="cfVia" value="99"/>
<param name="cfExtdStep" value="10"/>
<param name="cfHugging" value="1"/>
<param name="mnExtdSteps" value="1"/>
<param name="mnRipupLevel" value="0"/>
</pass>
<pass name="Optimize2" refer="Optimize1" active="yes">
<param name="cfNonPref" value="0"/>
<param name="cfChangeDir" value="6"/>
<param name="cfExtdStep" value="0"/>
<param name="cfBonusStep" value="2"/>
<param name="cfMalusStep" value="2"/>
<param name="cfPadImpact" value="2"/>
<param name="cfSmdImpact" value="2"/>
<param name="cfHugging" value="0"/>
</pass>
<pass name="Optimize3" refer="Optimize2" active="yes">
<param name="cfChangeDir" value="8"/>
<param name="cfPadImpact" value="0"/>
<param name="cfSmdImpact" value="0"/>
</pass>
<pass name="Optimize4" refer="Optimize3" active="yes">
<param name="cfChangeDir" value="25"/>
</pass>
</autorouter>
<elements>
<element name="C1" library="SparkFun-Capacitors" library_urn="urn:adsk.eagle:library:510" package="CPOL-RADIAL-2.5MM-5MM" value="10uF" x="4.99" y="17.54">
<attribute name="PROD_ID" value="CAP-08440" x="4.99" y="17.54" size="1.778" layer="27" display="off"/>
</element>
<element name="C2" library="SparkFun-Capacitors" library_urn="urn:adsk.eagle:library:510" package="CPOL-RADIAL-2.5MM-5MM" value="1uF" x="13.64" y="17.54">
<attribute name="PROD_ID" value="CAP-08440" x="13.64" y="17.54" size="1.778" layer="27" display="off"/>
</element>
<element name="J2" library="SparkFun-Connectors" library_urn="urn:adsk.eagle:library:513" package="POWER_JACK_SLOT" value="POWER_JACKSLT" x="0.77" y="13.57" rot="R270">
<attribute name="PROD_ID" value="PRT-00119" x="0.77" y="13.57" size="1.778" layer="27" rot="R270" display="off"/>
</element>
<element name="S1" library="SparkFun-Connectors" library_urn="urn:adsk.eagle:library:513" package="1X03" value="" x="45.48" y="42.5"/>
<element name="S2" library="SparkFun-Connectors" library_urn="urn:adsk.eagle:library:513" package="1X03" value="" x="34.09" y="42.5"/>
<element name="S3" library="SparkFun-Connectors" library_urn="urn:adsk.eagle:library:513" package="1X03" value="" x="22.7" y="42.5"/>
<element name="U1" library="SparkFun-IC-Power" library_urn="urn:adsk.eagle:library:526" package="TO-220-ALT" value="" x="9.44" y="27.85">
<attribute name="PROD_ID" value="VREG-08450" x="9.44" y="27.85" size="1.778" layer="27" display="off"/>
<attribute name="SF_ID" value="COM-00107" x="9.44" y="27.85" size="1.778" layer="27" display="off"/>
</element>
<element name="B1" library="SparkFun-Boards" library_urn="urn:adsk.eagle:library:509" package="UNO_R3_SHIELD" value="ARDUINO_UNO_R3_SHIELDBASIC" x="29.5" y="26.5" rot="R270"/>
<element name="S4" library="SparkFun-Switches" library_urn="urn:adsk.eagle:library:535" package="TACTILE_SWITCH_PTH_6.0MM" value="" x="23.5" y="13.5">
<attribute name="PROD_ID" value=" SWCH-08441" x="23.5" y="13.5" size="1.778" layer="27" display="off"/>
<attribute name="SF_SKU" value="COM-00097" x="23.5" y="13.5" size="1.778" layer="27" display="off"/>
</element>
</elements>
<signals>
<signal name="5V">
<contactref element="U1" pad="OUT"/>
<contactref element="C2" pad="1"/>
<contactref element="S3" pad="2"/>
<contactref element="S2" pad="2"/>
<contactref element="S1" pad="2"/>
<wire x1="11.98" y1="23.02" x2="11.98" y2="24.04" width="1.016" layer="1"/>
<wire x1="11.98" y1="23.02" x2="15" y2="20" width="1.016" layer="1"/>
<wire x1="15" y1="20" x2="15" y2="17.65" width="1.016" layer="1"/>
<wire x1="15" y1="17.65" x2="14.89" y2="17.54" width="1.016" layer="1"/>
<wire x1="11.98" y1="24.04" x2="11.98" y2="25.98" width="1.016" layer="1"/>
<wire x1="25" y1="39" x2="11.98" y2="25.98" width="1.016" layer="1"/>
<wire x1="25.9497125" y1="39" x2="35.5" y2="39" width="1.016" layer="1"/>
<wire x1="35.5" y1="39" x2="36.606165625" y2="39" width="1.016" layer="1"/>
<wire x1="25.9497125" y1="39" x2="25" y2="39" width="1.016" layer="1"/>
<wire x1="36.606165625" y1="39" x2="38" y2="39" width="1.016" layer="1"/>
<wire x1="38" y1="39" x2="47" y2="39" width="1.016" layer="1"/>
<wire x1="47" y1="39" x2="48" y2="40" width="1.016" layer="1"/>
<wire x1="48" y1="40" x2="48" y2="42.48" width="1.016" layer="1"/>
<wire x1="48" y1="42.48" x2="48.02" y2="42.5" width="1.016" layer="1"/>
<wire x1="36.63" y1="40.033334375" x2="36.63" y2="42.5" width="1.016" layer="1"/>
<wire x1="36.63" y1="40.033334375" x2="36.63" y2="39.023834375" width="1.016" layer="1"/>
<wire x1="36.63" y1="39.023834375" x2="36.606165625" y2="39" width="1.016" layer="1"/>
<wire x1="25.24" y1="42.5" x2="25.24" y2="40" width="1.016" layer="1"/>
<wire x1="25.24" y1="40" x2="25.24" y2="39.24" width="1.016" layer="1"/>
<wire x1="25.24" y1="39.24" x2="25" y2="39" width="1.016" layer="1"/>
<wire x1="25.24" y1="40" x2="25.24" y2="39.7097125" width="1.016" layer="1"/>
<wire x1="25.24" y1="39.7097125" x2="25.9497125" y2="39" width="1.016" layer="1"/>
<wire x1="35.5" y1="39" x2="35.596665625" y2="39" width="1.016" layer="1"/>
<wire x1="35.596665625" y1="39" x2="36.63" y2="40.033334375" width="1.016" layer="1"/>
<wire x1="38" y1="39" x2="37.663334375" y2="39" width="1.016" layer="1"/>
<wire x1="37.663334375" y1="39" x2="36.63" y2="40.033334375" width="1.016" layer="1"/>
</signal>
<signal name="GND">
<contactref element="J2" pad="GND@2"/>
<contactref element="J2" pad="GND@1"/>
<contactref element="C1" pad="2"/>
<contactref element="U1" pad="GND"/>
<contactref element="C2" pad="2"/>
<contactref element="S1" pad="3"/>
<contactref element="S2" pad="3"/>
<contactref element="S3" pad="3"/>
<contactref element="B1" pad="GND@2"/>
<contactref element="B1" pad="GND@1"/>
<contactref element="B1" pad="GND@0"/>
<contactref element="S4" pad="1"/>
<via x="26" y="45.5" extent="1-16" drill="1"/>
<via x="41.5" y="45" extent="1-16" drill="1"/>
<polygon width="0.2" layer="16">
<vertex x="0" y="0"/>
<vertex x="60" y="0"/>
<vertex x="60" y="53"/>
<vertex x="0" y="53"/>
</polygon>
<polygon width="0.2" layer="1">
<vertex x="0" y="0"/>
<vertex x="60" y="0"/>
<vertex x="60" y="53"/>
<vertex x="0" y="53"/>
</polygon>
</signal>
<signal name="N$1">
<contactref element="J2" pad="PWR"/>
<contactref element="U1" pad="IN"/>
<contactref element="C1" pad="1"/>
<wire x1="6.24" y1="17.54" x2="6.96" y2="17.54" width="1.016" layer="1"/>
<wire x1="11" y1="13.5" x2="13.5" y2="13.5" width="1.016" layer="1"/>
<wire x1="13.5" y1="13.5" x2="14.5" y2="12.5" width="1.016" layer="1"/>
<wire x1="14.5" y1="12.5" x2="14.5" y2="11.06" width="1.016" layer="1"/>
<wire x1="14.5" y1="11.06" x2="14.57" y2="10.99" width="1.016" layer="1"/>
<wire x1="6.96" y1="17.54" x2="11" y2="13.5" width="1.016" layer="1"/>
<wire x1="6.9" y1="24.04" x2="6.9" y2="18.2" width="1.016" layer="1"/>
<wire x1="6.9" y1="18.2" x2="6.24" y2="17.54" width="1.016" layer="1"/>
</signal>
<signal name="BASE">
<contactref element="S1" pad="1"/>
<contactref element="B1" pad="D9"/>
<wire x1="30.77" y1="50.63" x2="30.77" y2="49.73" width="1.016" layer="1"/>
<wire x1="30.77" y1="49.73" x2="33.5" y2="47" width="1.016" layer="1"/>
<wire x1="33.5" y1="47" x2="43" y2="47" width="1.016" layer="1"/>
<wire x1="43" y1="47" x2="45.5" y2="44.5" width="1.016" layer="1"/>
<wire x1="45.5" y1="44.5" x2="45.5" y2="42.52" width="1.016" layer="1"/>
<wire x1="45.5" y1="42.52" x2="45.48" y2="42.5" width="1.016" layer="1"/>
</signal>
<signal name="WRIST">
<contactref element="S2" pad="1"/>
<contactref element="B1" pad="D10"/>
<wire x1="34.09" y1="42.5" x2="34" y2="42.5" width="1.016" layer="1"/>
<wire x1="34" y1="42.5" x2="28.5" y2="48" width="1.016" layer="1"/>
<wire x1="28.5" y1="48" x2="28.5" y2="50.36" width="1.016" layer="1"/>
<wire x1="28.5" y1="50.36" x2="28.23" y2="50.63" width="1.016" layer="1"/>
</signal>
<signal name="HANDLE">
<contactref element="S3" pad="1"/>
<contactref element="B1" pad="D11"/>
<wire x1="22.7" y1="42.5" x2="22.7" y2="46.2" width="1.016" layer="1"/>
<wire x1="22.7" y1="46.2" x2="25.5" y2="49" width="1.016" layer="1"/>
<wire x1="25.5" y1="49" x2="25.5" y2="50.44" width="1.016" layer="1"/>
<wire x1="25.5" y1="50.44" x2="25.69" y2="50.63" width="1.016" layer="1"/>
</signal>
<signal name="N$5">
<contactref element="B1" pad="RES"/>
<contactref element="S4" pad="3"/>
<wire x1="24.42" y1="2.37" x2="24.42" y2="4.08" width="1.016" layer="1"/>
<wire x1="24.42" y1="4.08" x2="20" y2="8.5" width="1.016" layer="1"/>
<wire x1="20" y1="8.5" x2="20" y2="10.9906" width="1.016" layer="1"/>
<wire x1="20" y1="10.9906" x2="20.2488" y2="11.2394" width="1.016" layer="1"/>
</signal>
</signals>
</board>
</drawing>
<compatibility>
<note version="8.2" severity="warning">
Since Version 8.2, Eagle supports online libraries. The ids
of those online libraries will not be understood (or retained)
with this version.
</note>
</compatibility>
</eagle>
